out/pe_unit.vcd
$date
	Mon May  8 17:04:48 2023
$end

$version
	Synopsys VCS version S-2021.09_Full64
$end

$timescale
	1ps
$end

$comment Csum: 1 8c310630ff73575b $end


$scope module pe_unit_tb $end
$var reg 1 ! clk $end
$var reg 1 " rst_n $end
$var reg 1 # keep $end
$var reg 1 $ rounder_valid $end
$var reg 4 % add_number_i [3:0] $end
$var reg 1 & rounder_en $end
$var reg 16 ' data_in_1 [15:0] $end
$var reg 16 ( data_in_2 [15:0] $end
$var reg 16 ) data_out [15:0] $end
$var integer 32 * i $end

$scope module pe_unit_inst $end
$var wire 1 + clk $end
$var wire 1 , rst_n $end
$var wire 16 - data_in_1 [15:0] $end
$var wire 16 . data_in_2 [15:0] $end
$var wire 4 / add_number [3:0] $end
$var wire 1 0 rounder_en $end
$var wire 1 1 keep $end
$var wire 16 2 data_out [15:0] $end
$var wire 1 3 rounder_valid $end
$var reg 16 4 muldata_in_1 [15:0] $end
$var reg 16 5 muldata_in_2 [15:0] $end
$var reg 32 6 muldata_out [31:0] $end
$var reg 32 7 muldata_out_reg [31:0] $end
$var reg 4 8 add_number_r [3:0] $end
$var reg 32 9 adddata_in_1 [31:0] $end
$var reg 32 : adddata_in_2 [31:0] $end
$var reg 256 ; adddata_out_reg [255:0] $end
$var reg 32 < adddata_out [31:0] $end
$var reg 4 = round_number_r [3:0] $end
$var reg 1 > rounder_en_r $end
$var reg 1 ? rounder_en_rr $end
$var reg 32 @ rounder_data_in [31:0] $end
$var reg 16 A rounder_data_out [15:0] $end
$var reg 16 B rounder_data_out_reg [15:0] $end

$scope module mul_inst $end
$var wire 16 C a [15:0] $end
$var wire 16 D b [15:0] $end
$var wire 32 E product [31:0] $end
$upscope $end


$scope module adder_inst $end
$var wire 32 F a [31:0] $end
$var wire 32 G b [31:0] $end
$var wire 32 H sum [31:0] $end
$upscope $end


$scope module rounder $end
$var wire 32 I in [31:0] $end
$var wire 16 J out [15:0] $end
$var reg 1 K frac_carry_bit $end
$var reg 24 L rounded_data [23:0] $end
$var reg 1 M sign_bit $end
$var reg 7 N overflow_bits [6:0] $end
$var reg 1 O and_sig $end
$var reg 1 P or_sig $end
$var reg 16 Q normal_result [15:0] $end
$var reg 16 R data_o_reg [15:0] $end
$upscope $end

$upscope $end

$upscope $end

$enddefinitions $end

#0
$dumpvars
xO
0!
xK
0#
xP
01
00
x3
0,
0&
x>
x?
x$
0"
xM
bxxxxxxxxxxxxxxxxxxxxxxxxxxxxxxxxxxxxxxxxxxxxxxxxxxxxxxxxxxxxxxxxxxxxxxxxxxxxxxxxxxxxxxxxxxxxxxxxxxxxxxxxxxxxxxxxxxxxxxxxxxxxxxxxxxxxxxxxxxxxxxxxxxxxxxxxxxxxxxxxxxxxxxxxxxxxxxxxxxxxxxxxxxxxxxxxxxxxxxxxxxxxxxxxxxxxxxxxxxxxxxxxxxxxxxxxxxxxxxxxxxxxxxxxxxxxxxxx ;
b0000000000000000 C
b0000 /
b0000 %
bxxxx 8
bxxxxxxxxxxxxxxxxxxxxxxxxxxxxxxxx 9
bxxxxxxxxxxxxxxxxxxxxxxxxxxxxxxxx :
bxxxxxxxxxxxxxxxxxxxxxxxxxxxxxxxx <
bxxxxxxxxxxxxxxxxxxxxxxxxxxxxxxxx F
bxxxxxxxxxxxxxxxxxxxxxxxxxxxxxxxx G
b0000000000000000 D
b0000000000000000 '
b0000000000000000 (
bxxxxxxxxxxxxxxxx R
bxxxxxxxxxxxxxxxx )
bxxxxxxxxxxxxxxxxxxxxxxxxxxxxxxxx *
bxxxxxxxxxxxxxxxxxxxxxxxxxxxxxxxx I
b0000000000000000 4
b0000000000000000 5
b00000000000000000000000000000000 6
bxxxxxxxxxxxxxxxxxxxxxxxxxxxxxxxx 7
bxxxxxxxxxxxxxxxx Q
bxxxxxxxxxxxxxxxx J
b0000000000000000 -
b0000000000000000 .
bxxxxxxxxxxxxxxxx 2
b00000000000000000000000000000000 E
bxxxx =
bxxxxxxxxxxxxxxxxxxxxxxxx L
bxxxxxxxxxxxxxxxxxxxxxxxxxxxxxxxx @
bxxxxxxxxxxxxxxxx A
bxxxxxxxxxxxxxxxx B
bxxxxxxxxxxxxxxxxxxxxxxxxxxxxxxxx H
bxxxxxxx N
0+
$end
#5000
1!
1+
b00000000000000000000000000000000 7
b00000000000000000000000000000000 9
b00000000000000000000000000000000 F
b0000 8
b0000000000000000000000000000000000000000000000000000000000000000000000000000000000000000000000000000000000000000000000000000000000000000000000000000000000000000000000000000000000000000000000000000000000000000000000000000000000000000000000000000000000000000 ;
b0000 =
0>
0?
03
0$
b0000000000000000 B
b0000000000000000 2
b0000000000000000 )
b00000000000000000000000000000000 :
b00000000000000000000000000000000 G
b00000000000000000000000000000000 H
b00000000000000000000000000000000 <
b00000000000000000000000000000000 @
b00000000000000000000000000000000 I
0K
b000000000000000000000000 L
0M
b0000000 N
b0xxxxxxxxxxxxxxx Q
0P
0O
b0000000000000000 Q
b0000000000000000 R
b0000000000000000 J
b0000000000000000 A
#10000
0!
0+
#15000
1!
1+
#20000
0!
0+
#25000
1!
1+
#30000
0!
0+
#35000
1!
1+
#40000
0!
0+
#45000
1!
1+
#50000
1"
1,
0!
0+
#55000
1!
1+
#60000
b00000000000000000000000000000000 *
b0000000000000001 (
b0000000000000001 .
b0000000000000001 5
b0000000000000001 D
0!
0+
#65000
1!
1+
#70000
b00000000000000000000000000000001 *
b0001 %
b0001 /
b0000000000000001 '
b0000000000000001 -
b0000000000000001 4
b0000000000000001 C
b00000000000000000000000000000001 E
b00000000000000000000000000000001 6
0!
0+
#75000
1!
1+
b00000000000000000000000000000001 7
b00000000000000000000000000000001 9
b00000000000000000000000000000001 F
b00000000000000000000000000000001 H
b00000000000000000000000000000001 <
b0001 8
#80000
b00000000000000000000000000000010 *
b0010 %
b0010 /
b0000000000000010 '
b0000000000000010 -
b0000000000000010 4
b0000000000000010 C
b00000000000000000000000000000010 E
b00000000000000000000000000000010 6
0!
0+
#85000
1!
1+
b00000000000000000000000000000010 7
b00000000000000000000000000000010 9
b00000000000000000000000000000010 F
b00000000000000000000000000000010 H
b00000000000000000000000000000010 <
b0010 8
b0000000000000000000000000000000000000000000000000000000000000000000000000000000000000000000000000000000000000000000000000000000000000000000000000000000000000000000000000000000000000000000000000000000000000000000000000000000100000000000000000000000000000000 ;
b0001 =
#90000
b00000000000000000000000000000011 *
b0011 %
b0011 /
b0000000000000011 '
b0000000000000011 -
b0000000000000011 4
b0000000000000011 C
b00000000000000000000000000000011 E
b00000000000000000000000000000011 6
0!
0+
#95000
1!
1+
b00000000000000000000000000000011 7
b00000000000000000000000000000011 9
b00000000000000000000000000000011 F
b00000000000000000000000000000011 H
b00000000000000000000000000000011 <
b0011 8
b0000000000000000000000000000000000000000000000000000000000000000000000000000000000000000000000000000000000000000000000000000000000000000000000000000000000000000000000000000000000000000000000100000000000000000000000000000000100000000000000000000000000000000 ;
b0010 =
#100000
b00000000000000000000000000000100 *
b0100 %
b0100 /
b0000000000000100 '
b0000000000000100 -
b0000000000000100 4
b0000000000000100 C
b00000000000000000000000000000100 E
b00000000000000000000000000000100 6
0!
0+
#105000
1!
1+
b00000000000000000000000000000100 7
b00000000000000000000000000000100 9
b00000000000000000000000000000100 F
b00000000000000000000000000000100 H
b00000000000000000000000000000100 <
b0100 8
b0000000000000000000000000000000000000000000000000000000000000000000000000000000000000000000000000000000000000000000000000000000000000000000000000000000000000011000000000000000000000000000000100000000000000000000000000000000100000000000000000000000000000000 ;
b0011 =
#110000
b00000000000000000000000000000101 *
b0101 %
b0101 /
b0000000000000101 '
b0000000000000101 -
b0000000000000101 4
b0000000000000101 C
b00000000000000000000000000000101 E
b00000000000000000000000000000101 6
0!
0+
#115000
1!
1+
b00000000000000000000000000000101 7
b00000000000000000000000000000101 9
b00000000000000000000000000000101 F
b00000000000000000000000000000101 H
b00000000000000000000000000000101 <
b0101 8
b0000000000000000000000000000000000000000000000000000000000000000000000000000000000000000000000000000000000000000000000000000010000000000000000000000000000000011000000000000000000000000000000100000000000000000000000000000000100000000000000000000000000000000 ;
b0100 =
#120000
b00000000000000000000000000000110 *
b0110 %
b0110 /
b0000000000000110 '
b0000000000000110 -
b0000000000000110 4
b0000000000000110 C
b00000000000000000000000000000110 E
b00000000000000000000000000000110 6
0!
0+
#125000
1!
1+
b00000000000000000000000000000110 7
b00000000000000000000000000000110 9
b00000000000000000000000000000110 F
b00000000000000000000000000000110 H
b00000000000000000000000000000110 <
b0110 8
b0000000000000000000000000000000000000000000000000000000000000000000000000000000000000000000001010000000000000000000000000000010000000000000000000000000000000011000000000000000000000000000000100000000000000000000000000000000100000000000000000000000000000000 ;
b0101 =
#130000
b00000000000000000000000000000111 *
b0111 %
b0111 /
b0000000000000111 '
b0000000000000111 -
b0000000000000111 4
b0000000000000111 C
b00000000000000000000000000000111 E
b00000000000000000000000000000111 6
0!
0+
#135000
1!
1+
b00000000000000000000000000000111 7
b00000000000000000000000000000111 9
b00000000000000000000000000000111 F
b00000000000000000000000000000111 H
b00000000000000000000000000000111 <
b0111 8
b0000000000000000000000000000000000000000000000000000000000000110000000000000000000000000000001010000000000000000000000000000010000000000000000000000000000000011000000000000000000000000000000100000000000000000000000000000000100000000000000000000000000000000 ;
b0110 =
#140000
b00000000000000000000000000001000 *
b00000000000000000000000000000000 *
b0000 %
b0000 /
b0000000000000001 '
b0000000000000001 -
b0000000000000001 4
b0000000000000001 C
b00000000000000000000000000000001 E
b00000000000000000000000000000001 6
0!
0+
#145000
1!
1+
b00000000000000000000000000000001 7
b00000000000000000000000000000001 9
b00000000000000000000000000000001 F
b00000000000000000000000000000001 H
b00000000000000000000000000000001 <
b0000 8
b0000000000000000000000000000011100000000000000000000000000000110000000000000000000000000000001010000000000000000000000000000010000000000000000000000000000000011000000000000000000000000000000100000000000000000000000000000000100000000000000000000000000000000 ;
b0111 =
#150000
b00000000000000000000000000000001 *
b0001 %
b0001 /
0!
0+
#155000
1!
1+
b0001 8
b0000000000000000000000000000011100000000000000000000000000000110000000000000000000000000000001010000000000000000000000000000010000000000000000000000000000000011000000000000000000000000000000100000000000000000000000000000000100000000000000000000000000000001 ;
b0000 =
b00000000000000000000000000000001 :
b00000000000000000000000000000001 G
b00000000000000000000000000000010 H
b00000000000000000000000000000010 <
#160000
b00000000000000000000000000000010 *
b0010 %
b0010 /
0!
0+
#165000
1!
1+
b0010 8
b0000000000000000000000000000011100000000000000000000000000000110000000000000000000000000000001010000000000000000000000000000010000000000000000000000000000000011000000000000000000000000000000100000000000000000000000000000001000000000000000000000000000000001 ;
b0001 =
b00000000000000000000000000000010 :
b00000000000000000000000000000010 G
b00000000000000000000000000000011 H
b00000000000000000000000000000011 <
#170000
b00000000000000000000000000000011 *
b0011 %
b0011 /
0!
0+
#175000
1!
1+
b0011 8
b0000000000000000000000000000011100000000000000000000000000000110000000000000000000000000000001010000000000000000000000000000010000000000000000000000000000000011000000000000000000000000000000110000000000000000000000000000001000000000000000000000000000000001 ;
b0010 =
b00000000000000000000000000000011 :
b00000000000000000000000000000011 G
b00000000000000000000000000000100 H
b00000000000000000000000000000100 <
#180000
b00000000000000000000000000000100 *
b0100 %
b0100 /
0!
0+
#185000
1!
1+
b0100 8
b0000000000000000000000000000011100000000000000000000000000000110000000000000000000000000000001010000000000000000000000000000010000000000000000000000000000000100000000000000000000000000000000110000000000000000000000000000001000000000000000000000000000000001 ;
b0011 =
b00000000000000000000000000000100 :
b00000000000000000000000000000100 G
b00000000000000000000000000000101 H
b00000000000000000000000000000101 <
#190000
b00000000000000000000000000000101 *
b0101 %
b0101 /
0!
0+
#195000
1!
1+
b0101 8
b0000000000000000000000000000011100000000000000000000000000000110000000000000000000000000000001010000000000000000000000000000010100000000000000000000000000000100000000000000000000000000000000110000000000000000000000000000001000000000000000000000000000000001 ;
b0100 =
b00000000000000000000000000000101 :
b00000000000000000000000000000101 G
b00000000000000000000000000000110 H
b00000000000000000000000000000110 <
#200000
b00000000000000000000000000000110 *
b0110 %
b0110 /
0!
0+
#205000
1!
1+
b0110 8
b0000000000000000000000000000011100000000000000000000000000000110000000000000000000000000000001100000000000000000000000000000010100000000000000000000000000000100000000000000000000000000000000110000000000000000000000000000001000000000000000000000000000000001 ;
b0101 =
b00000000000000000000000000000110 :
b00000000000000000000000000000110 G
b00000000000000000000000000000111 H
b00000000000000000000000000000111 <
#210000
b00000000000000000000000000000111 *
b0111 %
b0111 /
0!
0+
#215000
1!
1+
b0111 8
b0000000000000000000000000000011100000000000000000000000000000111000000000000000000000000000001100000000000000000000000000000010100000000000000000000000000000100000000000000000000000000000000110000000000000000000000000000001000000000000000000000000000000001 ;
b0110 =
b00000000000000000000000000000111 :
b00000000000000000000000000000111 G
b00000000000000000000000000001000 H
b00000000000000000000000000001000 <
#220000
b00000000000000000000000000001000 *
1#
11
b00000000000000000000000000000000 *
b0000 %
b0000 /
b0000000000000000 '
b0000000000000000 -
b0000000000000000 4
b0000000000000000 C
b00000000000000000000000000000000 E
b00000000000000000000000000000000 6
0!
0+
#225000
1!
1+
b0111 =
#230000
b00000000000000000000000000000001 *
b0001 %
b0001 /
b0000000000000001 '
b0000000000000001 -
b0000000000000001 4
b0000000000000001 C
b00000000000000000000000000000001 E
b00000000000000000000000000000001 6
0!
0+
#235000
1!
1+
#240000
b00000000000000000000000000000010 *
b0010 %
b0010 /
b0000000000000010 '
b0000000000000010 -
b0000000000000010 4
b0000000000000010 C
b00000000000000000000000000000010 E
b00000000000000000000000000000010 6
0!
0+
#245000
1!
1+
#250000
b00000000000000000000000000000011 *
b0011 %
b0011 /
b0000000000000011 '
b0000000000000011 -
b0000000000000011 4
b0000000000000011 C
b00000000000000000000000000000011 E
b00000000000000000000000000000011 6
0!
0+
#255000
1!
1+
#260000
b00000000000000000000000000000100 *
b0100 %
b0100 /
b0000000000000100 '
b0000000000000100 -
b0000000000000100 4
b0000000000000100 C
b00000000000000000000000000000100 E
b00000000000000000000000000000100 6
0!
0+
#265000
1!
1+
#270000
b00000000000000000000000000000101 *
b0101 %
b0101 /
b0000000000000101 '
b0000000000000101 -
b0000000000000101 4
b0000000000000101 C
b00000000000000000000000000000101 E
b00000000000000000000000000000101 6
0!
0+
#275000
1!
1+
#280000
b00000000000000000000000000000110 *
b0110 %
b0110 /
b0000000000000110 '
b0000000000000110 -
b0000000000000110 4
b0000000000000110 C
b00000000000000000000000000000110 E
b00000000000000000000000000000110 6
0!
0+
#285000
1!
1+
#290000
b00000000000000000000000000000111 *
b0111 %
b0111 /
b0000000000000111 '
b0000000000000111 -
b0000000000000111 4
b0000000000000111 C
b00000000000000000000000000000111 E
b00000000000000000000000000000111 6
0!
0+
#295000
1!
1+
#300000
b00000000000000000000000000001000 *
0#
01
1&
10
b00000000000000000000000000000000 *
b0000 %
b0000 /
b0000000000000001 '
b0000000000000001 -
b0000000000000001 4
b0000000000000001 C
b00000000000000000000000000000001 E
b00000000000000000000000000000001 6
0!
0+
#305000
1!
1+
b0000 8
b0000000000000000000000000000100000000000000000000000000000000111000000000000000000000000000001100000000000000000000000000000010100000000000000000000000000000100000000000000000000000000000000110000000000000000000000000000001000000000000000000000000000000001 ;
1>
b00000000000000000000000000000001 :
b00000000000000000000000000000001 G
b00000000000000000000000000000010 H
b00000000000000000000000000000010 <
#310000
b00000000000000000000000000000001 *
b0001 %
b0001 /
0!
0+
#315000
1!
1+
b0001 8
b0000000000000000000000000000100000000000000000000000000000000111000000000000000000000000000001100000000000000000000000000000010100000000000000000000000000000100000000000000000000000000000000110000000000000000000000000000001000000000000000000000000000000010 ;
b0000 =
1?
13
1$
b00000000000000000000000000000010 :
b00000000000000000000000000000010 G
b00000000000000000000000000000011 H
b00000000000000000000000000000011 <
b00000000000000000000000000000010 @
b00000000000000000000000000000010 I
#320000
b00000000000000000000000000000010 *
b0010 %
b0010 /
0!
0+
#325000
1!
1+
b0010 8
b0000000000000000000000000000100000000000000000000000000000000111000000000000000000000000000001100000000000000000000000000000010100000000000000000000000000000100000000000000000000000000000000110000000000000000000000000000001000000000000000000000000000000000 ;
b0001 =
b00000000000000000000000000000011 :
b00000000000000000000000000000011 G
b00000000000000000000000000000100 H
b00000000000000000000000000000100 <
b00000000000000000000000000000010 @
#330000
b00000000000000000000000000000011 *
b0011 %
b0011 /
0!
0+
#335000
1!
1+
b0011 8
b0000000000000000000000000000100000000000000000000000000000000111000000000000000000000000000001100000000000000000000000000000010100000000000000000000000000000100000000000000000000000000000000110000000000000000000000000000000000000000000000000000000000000000 ;
b0010 =
b00000000000000000000000000000100 :
b00000000000000000000000000000100 G
b00000000000000000000000000000101 H
b00000000000000000000000000000101 <
b00000000000000000000000000000011 @
b00000000000000000000000000000011 I
#340000
b00000000000000000000000000000100 *
b0100 %
b0100 /
0!
0+
#345000
1!
1+
b0100 8
b0000000000000000000000000000100000000000000000000000000000000111000000000000000000000000000001100000000000000000000000000000010100000000000000000000000000000100000000000000000000000000000000000000000000000000000000000000000000000000000000000000000000000000 ;
b0011 =
b00000000000000000000000000000101 :
b00000000000000000000000000000101 G
b00000000000000000000000000000110 H
b00000000000000000000000000000110 <
b00000000000000000000000000000100 @
b00000000000000000000000000000100 I
#350000
b00000000000000000000000000000101 *
b0101 %
b0101 /
0!
0+
#355000
1!
1+
b0101 8
b0000000000000000000000000000100000000000000000000000000000000111000000000000000000000000000001100000000000000000000000000000010100000000000000000000000000000000000000000000000000000000000000000000000000000000000000000000000000000000000000000000000000000000 ;
b0100 =
b00000000000000000000000000000110 :
b00000000000000000000000000000110 G
b00000000000000000000000000000111 H
b00000000000000000000000000000111 <
b00000000000000000000000000000101 @
b00000000000000000000000000000101 I
#360000
b00000000000000000000000000000110 *
b0110 %
b0110 /
0!
0+
#365000
1!
1+
b0110 8
b0000000000000000000000000000100000000000000000000000000000000111000000000000000000000000000001100000000000000000000000000000000000000000000000000000000000000000000000000000000000000000000000000000000000000000000000000000000000000000000000000000000000000000 ;
b0101 =
b00000000000000000000000000000111 :
b00000000000000000000000000000111 G
b00000000000000000000000000001000 H
b00000000000000000000000000001000 <
b00000000000000000000000000000110 @
b00000000000000000000000000000110 I
#370000
b00000000000000000000000000000111 *
b0111 %
b0111 /
0!
0+
#375000
1!
1+
b0111 8
b0000000000000000000000000000100000000000000000000000000000000111000000000000000000000000000000000000000000000000000000000000000000000000000000000000000000000000000000000000000000000000000000000000000000000000000000000000000000000000000000000000000000000000 ;
b0110 =
b00000000000000000000000000001000 :
b00000000000000000000000000001000 G
b00000000000000000000000000001001 H
b00000000000000000000000000001001 <
b00000000000000000000000000000111 @
b00000000000000000000000000000111 I
#380000
b00000000000000000000000000001000 *
0!
0+
#385000
1!
1+
b0000000000000000000000000000100000000000000000000000000000000000000000000000000000000000000000000000000000000000000000000000000000000000000000000000000000000000000000000000000000000000000000000000000000000000000000000000000000000000000000000000000000000000 ;
b0111 =
b00000000000000000000000000001000 @
b00000000000000000000000000001000 I
#390000
0!
0+
#395000
1!
1+
b0000000000000000000000000000000000000000000000000000000000000000000000000000000000000000000000000000000000000000000000000000000000000000000000000000000000000000000000000000000000000000000000000000000000000000000000000000000000000000000000000000000000000000 ;
b00000000000000000000000000000000 @
b00000000000000000000000000000000 I
b00000000000000000000000000000000 :
b00000000000000000000000000000000 G
b00000000000000000000000000000001 H
b00000000000000000000000000000001 <
#400000
0!
0+
#405000
1!
1+
#410000
0"
0,
